<?xml version="1.0" encoding="utf-8"?>
<!-- Generator: Adobe Illustrator 26.0.2, SVG Export Plug-In . SVG Version: 6.00 Build 0)  -->
<svg version="1.1" id="Layer_1" xmlns="http://www.w3.org/2000/svg" xmlns:xlink="http://www.w3.org/1999/xlink" x="0px" y="0px"
	 viewBox="0 0 36 36" style="enable-background:new 0 0 36 36;" xml:space="preserve">
<g>
	<path d="M10.8,15.4v-3c0-0.6,0.3-1.2,0.8-1.4l11.8-6.8c0.8-0.4,1.7,0.1,1.7,1v3c0,0.6-0.3,1.2-0.8,1.4l-11.8,6.8
		C11.8,16.8,10.8,16.2,10.8,15.4z"/>
	<path d="M10.8,30.7v-2.6c0-0.6,0.3-1.2,0.8-1.4l2.5-1.4c0.8-0.4,1.7,0.1,1.7,0.9V29c0,0.6-0.3,1.2-0.8,1.4l-2.3,1.4
		C11.9,32.3,10.8,31.7,10.8,30.7z"/>
	<path d="M10.8,23.2v-3c0-0.6,0.3-1.2,0.8-1.5l7.6-4.3c0.8-0.4,1.7,0.1,1.7,1v2.9c0,0.6-0.3,1.2-0.8,1.4l-7.6,4.4
		C11.8,24.6,10.8,24.1,10.8,23.2z"/>
</g>
</svg>
